{
    "key": "group_61e60a28cbd83",
    "title": "Configuración API de NoEncontrado.org",
    "fields": [
        {
            "key": "field_61e60b0a4c5a8",
            "label": "Versíon",
            "name": "api_url",
            "type": "url",
            "instructions": "Ingresar la url, si existe una versión mayor a v1.0",
            "required": 0,
            "conditional_logic": 0,
            "wrapper": {
                "width": "",
                "class": "",
                "id": ""
            },
            "default_value": "",
            "placeholder": "https:\/\/api.noencontrado.org\/v1"
        },
        {
            "key": "field_61e60d74f02fd",
            "label": "Operación",
            "name": "api_path",
            "type": "select",
            "instructions": "\"search\" - Obtiene los datos, de forma aleatoria, de una de las busquedas activas, \r\n\"last\" - Obtiene los datos de todas las busquedas activas, \r\n\"last\/:n\" - Obtiene los datos de las ultimas n busquedas activas",
            "required": 0,
            "conditional_logic": 0,
            "wrapper": {
                "width": "",
                "class": "",
                "id": ""
            },
            "choices": {
                "search": "search",
                "last": "last",
                "last\/:n": "last\/:n"
            },
            "default_value": false,
            "allow_null": 0,
            "multiple": 0,
            "ui": 0,
            "return_format": "value",
            "ajax": 0,
            "placeholder": ""
        },
        {
            "key": "field_61e61053f02fe",
            "label": "Método",
            "name": "api_method",
            "type": "select",
            "instructions": "",
            "required": 0,
            "conditional_logic": 0,
            "wrapper": {
                "width": "",
                "class": "",
                "id": ""
            },
            "choices": {
                "GET": "GET",
                "POST": "POST",
                "PUT": "PUT"
            },
            "default_value": false,
            "allow_null": 0,
            "multiple": 0,
            "ui": 0,
            "return_format": "value",
            "ajax": 0,
            "placeholder": ""
        },
        {
            "key": "field_61e61123f02ff",
            "label": "Acceso Token",
            "name": "api_key",
            "type": "text",
            "instructions": "Ingresar código token, si la aplicación lo solicita",
            "required": 0,
            "conditional_logic": 0,
            "wrapper": {
                "width": "",
                "class": "",
                "id": ""
            },
            "default_value": "",
            "placeholder": "",
            "prepend": "",
            "append": "",
            "maxlength": ""
        },
        {
            "key": "field_61e61333fddcd",
            "label": "Habilitar",
            "name": "api_enable",
            "type": "true_false",
            "instructions": "",
            "required": 0,
            "conditional_logic": 0,
            "wrapper": {
                "width": "",
                "class": "",
                "id": ""
            },
            "message": "",
            "default_value": 0,
            "ui": 0,
            "ui_on_text": "",
            "ui_off_text": ""
        }
    ],
    "location": [
        [
            {
                "param": "page",
                "operator": "==",
                "value": "17"
            }
        ]
    ],
    "menu_order": 0,
    "position": "normal",
    "style": "default",
    "label_placement": "top",
    "instruction_placement": "label",
    "hide_on_screen": "",
    "active": true,
    "description": "",
    "show_in_rest": 0,
    "modified": 1642468525
}